{
    "config_name": "Graphyte Sample Config",

    "inst": "sample.dummy_inst",
    "inst_config": {},

    "dut": "sample.dummy_dut",
    "dut_config": {
        "override_config": "new value"
    },

    "test_plan": "sample_testplan.csv",
    "port_config": "sample_port_config.json",

    "retries": 3
}
