# device: Cypress APA Trackpad (cyapa)
# bit: 0B 00 00 00 00 00 00 00
# key: 00 00 00 00 00 00 00 00 00 00 00 00 00 00 00 00 00 00 00 00 00 00 00 00 00 00 00 00 00 00 00 00 00 00 01 00 00 00 00 00 20 E5 00 00 00 00 00 00 00 00 00 00 00 00 00 00 00 00 00 00 00 00 00 00 00 00 00 00 00 00 00 00 00 00 00 00 00 00 00 00 00 00 00 00 00 00 00 00 00 00 00 00 00 00 00 00
# rel: 00 00 00 00 00 00 00 00
# abs: 03 00 00 01 00 80 60 06
# led: 00 00 00 00 00 00 00 00
# prp: 05 00 00 00 00 00 00 00
# absinfo: 0 0 990 0 0 10
# absinfo: 1 0 650 0 0 10
# absinfo: 24 0 255 0 0 0
# absinfo: 47 0 14 0 0 0
# absinfo: 53 0 990 0 0 10
# absinfo: 54 0 650 0 0 10
# absinfo: 57 0 65535 0 0 0
# absinfo: 58 0 255 0 0 0
E: 336.779203 0003 002f 0
E: 336.779203 0003 0030 0
E: 336.779203 0003 0031 0
E: 336.779203 0003 0032 0
E: 336.779203 0003 0033 0
E: 336.779203 0003 0034 0
E: 336.779203 0003 0035 429
E: 336.779203 0003 0036 442
E: 336.779203 0003 0037 0
E: 336.779203 0003 0038 0
E: 336.779203 0003 0039 23
E: 336.779203 0003 003a 55
E: 336.779203 0003 003b 0
E: 336.779203 0003 002f 1
E: 336.779203 0003 0030 0
E: 336.779203 0003 0031 0
E: 336.779203 0003 0032 0
E: 336.779203 0003 0033 0
E: 336.779203 0003 0034 0
E: 336.779203 0003 0035 581
E: 336.779203 0003 0036 407
E: 336.779203 0003 0037 0
E: 336.779203 0003 0038 0
E: 336.779203 0003 0039 24
E: 336.779203 0003 003a 46
E: 336.779203 0003 003b 0
E: 336.779203 0003 002f 2
E: 336.779203 0003 0039 -1
E: 336.779203 0003 002f 3
E: 336.779203 0003 0039 -1
E: 336.779203 0003 002f 4
E: 336.779203 0003 0039 -1
E: 336.779203 0003 002f 5
E: 336.779203 0003 0039 -1
E: 336.779203 0003 002f 6
E: 336.779203 0003 0039 -1
E: 336.779203 0003 002f 7
E: 336.779203 0003 0039 -1
E: 336.779203 0003 002f 8
E: 336.779203 0003 0039 -1
E: 336.779203 0003 002f 9
E: 336.779203 0003 0039 -1
E: 336.779203 0003 002f 10
E: 336.779203 0003 0039 -1
E: 336.779203 0003 002f 11
E: 336.779203 0003 0039 -1
E: 336.779203 0003 002f 12
E: 336.779203 0003 0039 -1
E: 336.779203 0003 002f 13
E: 336.779203 0003 0039 -1
E: 336.779203 0003 002f 14
E: 336.779203 0003 0039 -1
E: 336.779203 0003 002f 1
E: 336.779203 0001 014a 1
E: 336.779203 0001 014d 1
E: 336.779203 0000 0000 0
E: 336.791119 0003 002f 0
E: 336.791119 0003 0036 441
E: 336.791119 0003 003a 58
E: 336.791119 0003 002f 1
E: 336.791119 0003 0036 405
E: 336.791119 0003 003a 48
E: 336.791119 0003 0001 441
E: 336.791119 0003 0018 58
E: 336.791119 0000 0000 0
E: 336.804324 0003 002f 0
E: 336.804324 0003 003a 59
E: 336.804324 0003 002f 1
E: 336.804324 0003 0035 580
E: 336.804324 0003 0036 403
E: 336.804324 0003 003a 50
E: 336.804324 0003 0018 59
E: 336.804324 0000 0000 0
E: 336.817553 0003 002f 0
E: 336.817553 0003 003a 61
E: 336.817553 0003 002f 1
E: 336.817553 0003 0035 581
E: 336.817553 0003 003a 51
E: 336.817553 0003 0018 61
E: 336.817553 0000 0000 0
E: 336.830897 0003 002f 0
E: 336.830897 0003 0036 440
E: 336.830897 0003 003a 62
E: 336.830897 0003 002f 1
E: 336.830897 0003 0035 580
E: 336.830897 0003 0036 401
E: 336.830897 0003 003a 53
E: 336.830897 0003 0001 440
E: 336.830897 0003 0018 62
E: 336.830897 0000 0000 0
E: 336.844245 0003 002f 0
E: 336.844245 0003 0035 428
E: 336.844245 0003 003a 63
E: 336.844245 0003 002f 1
E: 336.844245 0003 0035 581
E: 336.844245 0003 0036 400
E: 336.844245 0003 003a 54
E: 336.844245 0003 0000 428
E: 336.844245 0003 0018 63
E: 336.844245 0000 0000 0
E: 336.857599 0003 002f 0
E: 336.857599 0003 0035 427
E: 336.857599 0003 002f 1
E: 336.857599 0003 0035 580
E: 336.857599 0003 003a 55
E: 336.857599 0003 0000 427
E: 336.857599 0000 0000 0
E: 336.870886 0003 002f 0
E: 336.870886 0003 0035 426
E: 336.870886 0003 0036 439
E: 336.870886 0003 002f 1
E: 336.870886 0003 0036 399
E: 336.870886 0003 0000 426
E: 336.870886 0003 0001 439
E: 336.870886 0000 0000 0
E: 336.884159 0003 002f 0
E: 336.884159 0003 0036 437
E: 336.884159 0003 002f 1
E: 336.884159 0003 0035 581
E: 336.884159 0003 0036 395
E: 336.884159 0003 003a 56
E: 336.884159 0003 0001 437
E: 336.884159 0000 0000 0
E: 336.897536 0003 002f 0
E: 336.897536 0003 0035 424
E: 336.897536 0003 0036 435
E: 336.897536 0003 002f 1
E: 336.897536 0003 0035 580
E: 336.897536 0003 0036 392
E: 336.897536 0003 003a 57
E: 336.897536 0003 0000 424
E: 336.897536 0003 0001 435
E: 336.897536 0000 0000 0
E: 336.910902 0003 002f 0
E: 336.910902 0003 0035 423
E: 336.910902 0003 0036 433
E: 336.910902 0003 002f 1
E: 336.910902 0003 0036 391
E: 336.910902 0003 003a 58
E: 336.910902 0003 0000 423
E: 336.910902 0003 0001 433
E: 336.910902 0000 0000 0
E: 336.924235 0003 002f 0
E: 336.924235 0003 0036 431
E: 336.924235 0003 002f 1
E: 336.924235 0003 0036 388
E: 336.924235 0003 003a 61
E: 336.924235 0003 0001 431
E: 336.924235 0000 0000 0
E: 336.937707 0003 0036 385
E: 336.937707 0003 003a 60
E: 336.937707 0000 0000 0
E: 336.951093 0003 002f 0
E: 336.951093 0003 0035 421
E: 336.951093 0003 0036 430
E: 336.951093 0003 002f 1
E: 336.951093 0003 0036 383
E: 336.951093 0003 003a 63
E: 336.951093 0003 0000 421
E: 336.951093 0003 0001 430
E: 336.951093 0000 0000 0
E: 336.964612 0003 0035 579
E: 336.964612 0003 0036 382
E: 336.964612 0000 0000 0
E: 336.978134 0003 002f 0
E: 336.978134 0003 0035 420
E: 336.978134 0003 002f 1
E: 336.978134 0003 0035 578
E: 336.978134 0003 0036 380
E: 336.978134 0003 0000 420
E: 336.978134 0000 0000 0
E: 336.991472 0003 002f 0
E: 336.991472 0003 0035 419
E: 336.991472 0003 0036 428
E: 336.991472 0003 002f 1
E: 336.991472 0003 0036 379
E: 336.991472 0003 0000 419
E: 336.991472 0003 0001 428
E: 336.991472 0000 0000 0
E: 337.005298 0003 002f 0
E: 337.005298 0003 0035 418
E: 337.005298 0003 0036 427
E: 337.005298 0003 002f 1
E: 337.005298 0003 0035 577
E: 337.005298 0003 0036 376
E: 337.005298 0003 0000 418
E: 337.005298 0003 0001 427
E: 337.005298 0000 0000 0
E: 337.018686 0003 002f 0
E: 337.018686 0003 0035 417
E: 337.018686 0003 0036 426
E: 337.018686 0003 002f 1
E: 337.018686 0003 0035 576
E: 337.018686 0003 0036 375
E: 337.018686 0003 0000 417
E: 337.018686 0003 0001 426
E: 337.018686 0000 0000 0
E: 337.032184 0003 002f 0
E: 337.032184 0003 0035 416
E: 337.032184 0003 0036 425
E: 337.032184 0003 002f 1
E: 337.032184 0003 0036 374
E: 337.032184 0003 0000 416
E: 337.032184 0003 0001 425
E: 337.032184 0000 0000 0
E: 337.045843 0003 002f 0
E: 337.045843 0003 0035 415
E: 337.045843 0003 0036 424
E: 337.045843 0003 002f 1
E: 337.045843 0003 0035 575
E: 337.045843 0003 0036 372
E: 337.045843 0003 0000 415
E: 337.045843 0003 0001 424
E: 337.045843 0000 0000 0
E: 337.059354 0003 002f 0
E: 337.059354 0003 0036 423
E: 337.059354 0003 002f 1
E: 337.059354 0003 0036 371
E: 337.059354 0003 0001 423
E: 337.059354 0000 0000 0
E: 337.072896 0003 002f 0
E: 337.072896 0003 0035 414
E: 337.072896 0003 002f 1
E: 337.072896 0003 0036 370
E: 337.072896 0003 0000 414
E: 337.072896 0000 0000 0
E: 337.086353 0003 002f 0
E: 337.086353 0003 0035 413
E: 337.086353 0003 0036 422
E: 337.086353 0003 002f 1
E: 337.086353 0003 0035 574
E: 337.086353 0003 0036 369
E: 337.086353 0003 0000 413
E: 337.086353 0003 0001 422
E: 337.086353 0000 0000 0
E: 337.099942 0003 002f 0
E: 337.099942 0003 0036 421
E: 337.099942 0003 002f 1
E: 337.099942 0003 0036 368
E: 337.099942 0003 0001 421
E: 337.099942 0000 0000 0
E: 337.114128 0003 002f 0
E: 337.114128 0003 0036 420
E: 337.114128 0003 002f 1
E: 337.114128 0003 0035 568
E: 337.114128 0003 0036 347
E: 337.114128 0003 0001 420
E: 337.114128 0000 0000 0
E: 337.127383 0003 002f 0
E: 337.127383 0003 0035 412
E: 337.127383 0003 0036 418
E: 337.127383 0003 002f 1
E: 337.127383 0003 0035 574
E: 337.127383 0003 0036 366
E: 337.127383 0003 0000 412
E: 337.127383 0003 0001 418
E: 337.127383 0000 0000 0
E: 337.140881 0003 0035 575
E: 337.140881 0003 0036 365
E: 337.140881 0000 0000 0
E: 337.154540 0003 002f 0
E: 337.154540 0003 0035 411
E: 337.154540 0003 0036 416
E: 337.154540 0003 002f 1
E: 337.154540 0003 0036 363
E: 337.154540 0003 0000 411
E: 337.154540 0003 0001 416
E: 337.154540 0000 0000 0
E: 337.168650 0003 0035 576
E: 337.168650 0003 0036 362
E: 337.168650 0000 0000 0
E: 337.182035 0003 0036 360
E: 337.182035 0000 0000 0
E: 337.195903 0003 002f 0
E: 337.195903 0003 0035 403
E: 337.195903 0003 0036 383
E: 337.195903 0003 002f 1
E: 337.195903 0003 0035 570
E: 337.195903 0003 0036 333
E: 337.195903 0003 0000 403
E: 337.195903 0003 0001 383
E: 337.195903 0000 0000 0
E: 337.209773 0003 002f 0
E: 337.209773 0003 0036 382
E: 337.209773 0003 002f 1
E: 337.209773 0003 0036 332
E: 337.209773 0003 0001 382
E: 337.209773 0000 0000 0
E: 337.223763 0003 002f 0
E: 337.223763 0003 0036 381
E: 337.223763 0003 002f 1
E: 337.223763 0003 0036 331
E: 337.223763 0003 0001 381
E: 337.223763 0000 0000 0
E: 337.237985 0003 002f 0
E: 337.237985 0003 0035 402
E: 337.237985 0003 0036 379
E: 337.237985 0003 002f 1
E: 337.237985 0003 0036 329
E: 337.237985 0003 0000 402
E: 337.237985 0003 0001 379
E: 337.237985 0000 0000 0
E: 337.251772 0003 002f 0
E: 337.251772 0003 0035 401
E: 337.251772 0003 0036 378
E: 337.251772 0003 002f 1
E: 337.251772 0003 0036 327
E: 337.251772 0003 0000 401
E: 337.251772 0003 0001 378
E: 337.251772 0000 0000 0
E: 337.266039 0003 0035 579
E: 337.266039 0003 0036 356
E: 337.266039 0003 003a 60
E: 337.266039 0000 0000 0
E: 337.279553 0003 002f 0
E: 337.279553 0003 0035 400
E: 337.279553 0003 0036 376
E: 337.279553 0003 002f 1
E: 337.279553 0003 0035 569
E: 337.279553 0003 0036 323
E: 337.279553 0003 003a 63
E: 337.279553 0003 0000 400
E: 337.279553 0003 0001 376
E: 337.279553 0000 0000 0
E: 337.293412 0003 002f 0
E: 337.293412 0003 0036 373
E: 337.293412 0003 002f 1
E: 337.293412 0003 0036 322
E: 337.293412 0003 0001 373
E: 337.293412 0000 0000 0
E: 337.307244 0003 002f 0
E: 337.307244 0003 0035 398
E: 337.307244 0003 0036 372
E: 337.307244 0003 002f 1
E: 337.307244 0003 0036 320
E: 337.307244 0003 0000 398
E: 337.307244 0003 0001 372
E: 337.307244 0000 0000 0
E: 337.321264 0003 002f 0
E: 337.321264 0003 0035 397
E: 337.321264 0003 0036 370
E: 337.321264 0003 002f 1
E: 337.321264 0003 0036 317
E: 337.321264 0003 0000 397
E: 337.321264 0003 0001 370
E: 337.321264 0000 0000 0
E: 337.335086 0003 002f 0
E: 337.335086 0003 0036 369
E: 337.335086 0003 002f 1
E: 337.335086 0003 0035 549
E: 337.335086 0003 0036 293
E: 337.335086 0003 0001 369
E: 337.335086 0000 0000 0
E: 337.348782 0003 002f 0
E: 337.348782 0003 0036 367
E: 337.348782 0003 002f 1
E: 337.348782 0003 0036 292
E: 337.348782 0003 0001 367
E: 337.348782 0000 0000 0
E: 337.362558 0003 002f 0
E: 337.362558 0003 0035 396
E: 337.362558 0003 0036 366
E: 337.362558 0003 002f 1
E: 337.362558 0003 0036 290
E: 337.362558 0003 0000 396
E: 337.362558 0003 0001 366
E: 337.362558 0000 0000 0
E: 337.376299 0003 002f 0
E: 337.376299 0003 0035 395
E: 337.376299 0003 0036 364
E: 337.376299 0003 002f 1
E: 337.376299 0003 0035 550
E: 337.376299 0003 0036 288
E: 337.376299 0003 0000 395
E: 337.376299 0003 0001 364
E: 337.376299 0000 0000 0
E: 337.390081 0003 002f 0
E: 337.390081 0003 0036 362
E: 337.390081 0003 002f 1
E: 337.390081 0003 0035 549
E: 337.390081 0003 0036 287
E: 337.390081 0003 0001 362
E: 337.390081 0000 0000 0
E: 337.403783 0003 0035 550
E: 337.403783 0003 0036 285
E: 337.403783 0000 0000 0
E: 337.417663 0003 002f 0
E: 337.417663 0003 0035 394
E: 337.417663 0003 0036 361
E: 337.417663 0003 002f 1
E: 337.417663 0003 0035 549
E: 337.417663 0003 0036 283
E: 337.417663 0003 0000 394
E: 337.417663 0003 0001 361
E: 337.417663 0000 0000 0
E: 337.431505 0003 002f 0
E: 337.431505 0003 0036 359
E: 337.431505 0003 002f 1
E: 337.431505 0003 0036 282
E: 337.431505 0003 0001 359
E: 337.431505 0000 0000 0
E: 337.445342 0003 002f 0
E: 337.445342 0003 0035 393
E: 337.445342 0003 002f 1
E: 337.445342 0003 0036 280
E: 337.445342 0003 0000 393
E: 337.445342 0000 0000 0
E: 337.459709 0003 002f 0
E: 337.459709 0003 0036 358
E: 337.459709 0003 0001 358
E: 337.459709 0000 0000 0
E: 337.472949 0003 0036 357
E: 337.472949 0003 002f 1
E: 337.472949 0003 0036 279
E: 337.472949 0003 0001 357
E: 337.472949 0000 0000 0
E: 337.486882 0003 0036 277
E: 337.486882 0000 0000 0
E: 337.500715 0003 002f 0
E: 337.500715 0003 0036 356
E: 337.500715 0003 003a 62
E: 337.500715 0003 002f 1
E: 337.500715 0003 0036 276
E: 337.500715 0003 0001 356
E: 337.500715 0003 0018 62
E: 337.500715 0000 0000 0
E: 337.514583 0003 002f 0
E: 337.514583 0003 0036 355
E: 337.514583 0003 003a 60
E: 337.514583 0003 002f 1
E: 337.514583 0003 0036 274
E: 337.514583 0003 0001 355
E: 337.514583 0003 0018 60
E: 337.514583 0000 0000 0
E: 337.528507 0003 002f 0
E: 337.528507 0003 0035 392
E: 337.528507 0003 0036 353
E: 337.528507 0003 003a 58
E: 337.528507 0003 002f 1
E: 337.528507 0003 0035 550
E: 337.528507 0003 0000 392
E: 337.528507 0003 0001 353
E: 337.528507 0003 0018 58
E: 337.528507 0000 0000 0
E: 337.542531 0003 002f 0
E: 337.542531 0003 0035 393
E: 337.542531 0003 003a 59
E: 337.542531 0003 002f 1
E: 337.542531 0003 0035 549
E: 337.542531 0003 0036 273
E: 337.542531 0003 0000 393
E: 337.542531 0003 0018 59
E: 337.542531 0000 0000 0
E: 337.556177 0003 002f 0
E: 337.556177 0003 0035 394
E: 337.556177 0003 0036 351
E: 337.556177 0003 003a 56
E: 337.556177 0003 002f 1
E: 337.556177 0003 0036 271
E: 337.556177 0003 0000 394
E: 337.556177 0003 0001 351
E: 337.556177 0003 0018 56
E: 337.556177 0000 0000 0
E: 337.570104 0003 002f 0
E: 337.570104 0003 0036 352
E: 337.570104 0003 003a 57
E: 337.570104 0003 0001 352
E: 337.570104 0003 0018 57
E: 337.570104 0000 0000 0
E: 337.584049 0003 0035 388
E: 337.584049 0003 0036 318
E: 337.584049 0003 003a 63
E: 337.584049 0003 002f 1
E: 337.584049 0003 0035 548
E: 337.584049 0003 0036 269
E: 337.584049 0003 0000 388
E: 337.584049 0003 0001 318
E: 337.584049 0003 0018 63
E: 337.584049 0000 0000 0
E: 337.598070 0003 0035 549
E: 337.598070 0003 0036 268
E: 337.598070 0000 0000 0
E: 337.611942 0003 002f 0
E: 337.611942 0003 0036 317
E: 337.611942 0003 002f 1
E: 337.611942 0003 0036 267
E: 337.611942 0003 0001 317
E: 337.611942 0000 0000 0
E: 337.625744 0003 002f 0
E: 337.625744 0003 0035 387
E: 337.625744 0003 0036 315
E: 337.625744 0003 002f 1
E: 337.625744 0003 0035 550
E: 337.625744 0003 0000 387
E: 337.625744 0003 0001 315
E: 337.625744 0000 0000 0
E: 337.639705 0003 0036 266
E: 337.639705 0000 0000 0
E: 337.653581 0003 002f 0
E: 337.653581 0003 0036 314
E: 337.653581 0003 002f 1
E: 337.653581 0003 0036 265
E: 337.653581 0003 0001 314
E: 337.653581 0000 0000 0
E: 337.695358 0003 002f 0
E: 337.695358 0003 0036 313
E: 337.695358 0003 002f 1
E: 337.695358 0003 0036 263
E: 337.695358 0003 0001 313
E: 337.695358 0000 0000 0
E: 337.709451 0003 002f 0
E: 337.709451 0003 0036 312
E: 337.709451 0003 002f 1
E: 337.709451 0003 0035 548
E: 337.709451 0003 0036 239
E: 337.709451 0003 003a 59
E: 337.709451 0003 0001 312
E: 337.709451 0000 0000 0
E: 337.723074 0003 002f 0
E: 337.723074 0003 0035 386
E: 337.723074 0003 0036 311
E: 337.723074 0003 002f 1
E: 337.723074 0003 0035 547
E: 337.723074 0003 0036 237
E: 337.723074 0003 003a 63
E: 337.723074 0003 0000 386
E: 337.723074 0003 0001 311
E: 337.723074 0000 0000 0
E: 337.737000 0003 002f 0
E: 337.737000 0003 0035 387
E: 337.737000 0003 0036 310
E: 337.737000 0003 002f 1
E: 337.737000 0003 003a 62
E: 337.737000 0003 0000 387
E: 337.737000 0003 0001 310
E: 337.737000 0000 0000 0
E: 337.750909 0003 002f 0
E: 337.750909 0003 0036 309
E: 337.750909 0003 002f 1
E: 337.750909 0003 0036 236
E: 337.750909 0003 003a 63
E: 337.750909 0003 0001 309
E: 337.750909 0000 0000 0
E: 337.764789 0003 002f 0
E: 337.764789 0003 0035 386
E: 337.764789 0003 002f 1
E: 337.764789 0003 0036 235
E: 337.764789 0003 0000 386
E: 337.764789 0000 0000 0
E: 337.778709 0003 002f 0
E: 337.778709 0003 0036 308
E: 337.778709 0003 0001 308
E: 337.778709 0000 0000 0
E: 337.792862 0003 0036 307
E: 337.792862 0003 002f 1
E: 337.792862 0003 0035 548
E: 337.792862 0003 0036 234
E: 337.792862 0003 0001 307
E: 337.792862 0000 0000 0
E: 337.807015 0003 0035 547
E: 337.807015 0003 0036 232
E: 337.807015 0000 0000 0
E: 337.820677 0003 002f 0
E: 337.820677 0003 0036 305
E: 337.820677 0003 0001 305
E: 337.820677 0000 0000 0
E: 337.834556 0003 002f 1
E: 337.834556 0003 0036 230
E: 337.834556 0000 0000 0
E: 337.847912 0003 002f 0
E: 337.847912 0003 0035 385
E: 337.847912 0003 002f 1
E: 337.847912 0003 0035 548
E: 337.847912 0003 0036 229
E: 337.847912 0003 0000 385
E: 337.847912 0000 0000 0
E: 337.861670 0003 002f 0
E: 337.861670 0003 0035 386
E: 337.861670 0003 0036 304
E: 337.861670 0003 002f 1
E: 337.861670 0003 0036 228
E: 337.861670 0003 0000 386
E: 337.861670 0003 0001 304
E: 337.861670 0000 0000 0
E: 337.875677 0003 002f 0
E: 337.875677 0003 0036 303
E: 337.875677 0003 0001 303
E: 337.875677 0000 0000 0
E: 337.889574 0003 0036 302
E: 337.889574 0003 002f 1
E: 337.889574 0003 0036 225
E: 337.889574 0003 0001 302
E: 337.889574 0000 0000 0
E: 337.903553 0003 0036 224
E: 337.903553 0000 0000 0
E: 337.917618 0003 002f 0
E: 337.917618 0003 0036 301
E: 337.917618 0003 002f 1
E: 337.917618 0003 0036 223
E: 337.917618 0003 0001 301
E: 337.917618 0000 0000 0
E: 337.931434 0003 002f 0
E: 337.931434 0003 0036 300
E: 337.931434 0003 002f 1
E: 337.931434 0003 0036 221
E: 337.931434 0003 0001 300
E: 337.931434 0000 0000 0
E: 337.945262 0003 002f 0
E: 337.945262 0003 0036 299
E: 337.945262 0003 002f 1
E: 337.945262 0003 0036 220
E: 337.945262 0003 0001 299
E: 337.945262 0000 0000 0
E: 337.959568 0003 002f 0
E: 337.959568 0003 0035 385
E: 337.959568 0003 0036 296
E: 337.959568 0003 003a 61
E: 337.959568 0003 002f 1
E: 337.959568 0003 0036 219
E: 337.959568 0003 0000 385
E: 337.959568 0003 0001 296
E: 337.959568 0003 0018 61
E: 337.959568 0000 0000 0
E: 337.972954 0003 002f 0
E: 337.972954 0003 0036 295
E: 337.972954 0003 002f 1
E: 337.972954 0003 0036 217
E: 337.972954 0003 0001 295
E: 337.972954 0000 0000 0
E: 337.986829 0003 002f 0
E: 337.986829 0003 0036 294
E: 337.986829 0003 003a 59
E: 337.986829 0003 002f 1
E: 337.986829 0003 0036 216
E: 337.986829 0003 0001 294
E: 337.986829 0003 0018 59
E: 337.986829 0000 0000 0
E: 338.000704 0003 002f 0
E: 338.000704 0003 0036 293
E: 338.000704 0003 003a 60
E: 338.000704 0003 002f 1
E: 338.000704 0003 0036 215
E: 338.000704 0003 0001 293
E: 338.000704 0003 0018 60
E: 338.000704 0000 0000 0
E: 338.014642 0003 002f 0
E: 338.014642 0003 003a 59
E: 338.014642 0003 002f 1
E: 338.014642 0003 0036 213
E: 338.014642 0003 0018 59
E: 338.014642 0000 0000 0
E: 338.028506 0003 002f 0
E: 338.028506 0003 0035 386
E: 338.028506 0003 003a 58
E: 338.028506 0003 002f 1
E: 338.028506 0003 0036 212
E: 338.028506 0003 0000 386
E: 338.028506 0003 0018 58
E: 338.028506 0000 0000 0
E: 338.042288 0003 002f 0
E: 338.042288 0003 0035 385
E: 338.042288 0003 0036 292
E: 338.042288 0003 003a 55
E: 338.042288 0003 002f 1
E: 338.042288 0003 0036 211
E: 338.042288 0003 0000 385
E: 338.042288 0003 0001 292
E: 338.042288 0003 0018 55
E: 338.042288 0000 0000 0
E: 338.056668 0003 002f 0
E: 338.056668 0003 0035 382
E: 338.056668 0003 0036 258
E: 338.056668 0003 003a 63
E: 338.056668 0003 002f 1
E: 338.056668 0003 0036 210
E: 338.056668 0003 0000 382
E: 338.056668 0003 0001 258
E: 338.056668 0003 0018 63
E: 338.056668 0000 0000 0
E: 338.070319 0003 002f 0
E: 338.070319 0003 0036 257
E: 338.070319 0003 0001 257
E: 338.070319 0000 0000 0
E: 338.084024 0003 002f 1
E: 338.084024 0003 0036 209
E: 338.084024 0000 0000 0
E: 338.111666 0003 0035 549
E: 338.111666 0003 0036 207
E: 338.111666 0000 0000 0
E: 338.125557 0003 002f 0
E: 338.125557 0003 0036 256
E: 338.125557 0003 002f 1
E: 338.125557 0003 0036 205
E: 338.125557 0003 0001 256
E: 338.125557 0000 0000 0
E: 338.153449 0003 002f 0
E: 338.153449 0003 0036 255
E: 338.153449 0003 0001 255
E: 338.153449 0000 0000 0
E: 338.167811 0003 0036 254
E: 338.167811 0003 002f 1
E: 338.167811 0003 0036 204
E: 338.167811 0003 0001 254
E: 338.167811 0000 0000 0
E: 338.181253 0003 0035 544
E: 338.181253 0003 0036 179
E: 338.181253 0003 003a 62
E: 338.181253 0000 0000 0
E: 338.195170 0003 002f 0
E: 338.195170 0003 0036 253
E: 338.195170 0003 002f 1
E: 338.195170 0003 0036 178
E: 338.195170 0003 0001 253
E: 338.195170 0000 0000 0
E: 338.209606 0003 002f 0
E: 338.209606 0003 0036 252
E: 338.209606 0003 002f 1
E: 338.209606 0003 0036 177
E: 338.209606 0003 003a 63
E: 338.209606 0003 0001 252
E: 338.209606 0000 0000 0
E: 338.223098 0003 002f 0
E: 338.223098 0003 0036 251
E: 338.223098 0003 002f 1
E: 338.223098 0003 0036 176
E: 338.223098 0003 0001 251
E: 338.223098 0000 0000 0
E: 338.237063 0003 002f 0
E: 338.237063 0003 0035 381
E: 338.237063 0003 0036 249
E: 338.237063 0003 002f 1
E: 338.237063 0003 0036 174
E: 338.237063 0003 0000 381
E: 338.237063 0003 0001 249
E: 338.237063 0000 0000 0
E: 338.250971 0003 002f 0
E: 338.250971 0003 0035 382
E: 338.250971 0003 0036 250
E: 338.250971 0003 002f 1
E: 338.250971 0003 0036 172
E: 338.250971 0003 0000 382
E: 338.250971 0003 0001 250
E: 338.250971 0000 0000 0
E: 338.264957 0003 002f 0
E: 338.264957 0003 0036 248
E: 338.264957 0003 002f 1
E: 338.264957 0003 0035 543
E: 338.264957 0003 0001 248
E: 338.264957 0000 0000 0
E: 338.278820 0003 002f 0
E: 338.278820 0003 0036 247
E: 338.278820 0003 002f 1
E: 338.278820 0003 0036 169
E: 338.278820 0003 0001 247
E: 338.278820 0000 0000 0
E: 338.292808 0003 002f 0
E: 338.292808 0003 0035 381
E: 338.292808 0003 0036 246
E: 338.292808 0003 0000 381
E: 338.292808 0003 0001 246
E: 338.292808 0000 0000 0
E: 338.306725 0003 0035 380
E: 338.306725 0003 0036 242
E: 338.306725 0003 002f 1
E: 338.306725 0003 0035 544
E: 338.306725 0003 0036 167
E: 338.306725 0003 0000 380
E: 338.306725 0003 0001 242
E: 338.306725 0000 0000 0
E: 338.320541 0003 002f 0
E: 338.320541 0003 0036 243
E: 338.320541 0003 002f 1
E: 338.320541 0003 0036 165
E: 338.320541 0003 0001 243
E: 338.320541 0000 0000 0
E: 338.335049 0003 002f 0
E: 338.335049 0003 0035 381
E: 338.335049 0003 0036 242
E: 338.335049 0003 002f 1
E: 338.335049 0003 0035 543
E: 338.335049 0003 0000 381
E: 338.335049 0003 0001 242
E: 338.335049 0000 0000 0
E: 338.348437 0003 0036 163
E: 338.348437 0000 0000 0
E: 338.362656 0003 002f 0
E: 338.362656 0003 0035 380
E: 338.362656 0003 0036 239
E: 338.362656 0003 003a 62
E: 338.362656 0003 002f 1
E: 338.362656 0003 0036 161
E: 338.362656 0003 0000 380
E: 338.362656 0003 0001 239
E: 338.362656 0003 0018 62
E: 338.362656 0000 0000 0
E: 338.390862 0003 002f 0
E: 338.390862 0003 0035 379
E: 338.390862 0003 0036 238
E: 338.390862 0003 003a 60
E: 338.390862 0003 002f 1
E: 338.390862 0003 0035 544
E: 338.390862 0003 0036 160
E: 338.390862 0003 0000 379
E: 338.390862 0003 0001 238
E: 338.390862 0003 0018 60
E: 338.390862 0000 0000 0
E: 338.404824 0003 002f 0
E: 338.404824 0003 0036 237
E: 338.404824 0003 003a 58
E: 338.404824 0003 002f 1
E: 338.404824 0003 0035 543
E: 338.404824 0003 0036 157
E: 338.404824 0003 0001 237
E: 338.404824 0003 0018 58
E: 338.404824 0000 0000 0
E: 338.418872 0003 002f 0
E: 338.418872 0003 0036 236
E: 338.418872 0003 0001 236
E: 338.418872 0000 0000 0
E: 338.433017 0003 0035 368
E: 338.433017 0003 0036 204
E: 338.433017 0003 003a 63
E: 338.433017 0003 002f 1
E: 338.433017 0003 0036 156
E: 338.433017 0003 0000 368
E: 338.433017 0003 0001 204
E: 338.433017 0003 0018 63
E: 338.433017 0000 0000 0
E: 338.446893 0003 002f 0
E: 338.446893 0003 0036 203
E: 338.446893 0003 0001 203
E: 338.446893 0000 0000 0
E: 338.474776 0003 0036 202
E: 338.474776 0003 002f 1
E: 338.474776 0003 0036 154
E: 338.474776 0003 0001 202
E: 338.474776 0000 0000 0
E: 338.488511 0003 002f 0
E: 338.488511 0003 0036 201
E: 338.488511 0003 0001 201
E: 338.488511 0000 0000 0
E: 338.502439 0003 0036 200
E: 338.502439 0003 002f 1
E: 338.502439 0003 0036 153
E: 338.502439 0003 0001 200
E: 338.502439 0000 0000 0
E: 338.516782 0003 002f 0
E: 338.516782 0003 0035 367
E: 338.516782 0003 0036 199
E: 338.516782 0003 002f 1
E: 338.516782 0003 0035 542
E: 338.516782 0003 0000 367
E: 338.516782 0003 0001 199
E: 338.516782 0000 0000 0
E: 338.530309 0003 002f 0
E: 338.530309 0003 0035 364
E: 338.530309 0003 0036 175
E: 338.530309 0003 003a 60
E: 338.530309 0003 002f 1
E: 338.530309 0003 0035 543
E: 338.530309 0003 0036 151
E: 338.530309 0003 0000 364
E: 338.530309 0003 0001 175
E: 338.530309 0003 0018 60
E: 338.530309 0000 0000 0
E: 338.544105 0003 002f 0
E: 338.544105 0003 0035 363
E: 338.544105 0003 0036 172
E: 338.544105 0003 002f 1
E: 338.544105 0003 0035 541
E: 338.544105 0003 0036 150
E: 338.544105 0003 0000 363
E: 338.544105 0003 0001 172
E: 338.544105 0000 0000 0
E: 338.557932 0003 002f 0
E: 338.557932 0003 0036 168
E: 338.557932 0003 003a 58
E: 338.557932 0003 002f 1
E: 338.557932 0003 0035 539
E: 338.557932 0003 0036 147
E: 338.557932 0003 0001 168
E: 338.557932 0003 0018 58
E: 338.557932 0000 0000 0
E: 338.571459 0003 002f 0
E: 338.571459 0003 0035 357
E: 338.571459 0003 0036 167
E: 338.571459 0003 003a 38
E: 338.571459 0003 002f 1
E: 338.571459 0003 0035 538
E: 338.571459 0003 0036 144
E: 338.571459 0003 0000 357
E: 338.571459 0003 0001 167
E: 338.571459 0003 0018 38
E: 338.571459 0000 0000 0
E: 338.584727 0003 002f 0
E: 338.584727 0003 0036 155
E: 338.584727 0003 003a 11
E: 338.584727 0003 002f 1
E: 338.584727 0003 0035 533
E: 338.584727 0003 0036 139
E: 338.584727 0003 003a 60
E: 338.584727 0003 0001 155
E: 338.584727 0003 0018 11
E: 338.584727 0000 0000 0
E: 338.595640 0003 0035 523
E: 338.595640 0003 0036 155
E: 338.595640 0003 003a 28
E: 338.595640 0003 002f 0
E: 338.595640 0003 0039 -1
E: 338.595640 0001 0145 1
E: 338.595640 0001 014d 0
E: 338.595640 0003 0000 523
E: 338.595640 0003 0018 28
E: 338.595640 0000 0000 0
E: 338.605533 0003 002f 1
E: 338.605533 0003 0039 -1
E: 338.605533 0001 014a 0
E: 338.605533 0001 0145 0
E: 338.605533 0003 0018 0
E: 338.605533 0000 0000 0
E: 338.606033 0003 002f 0
E: 338.606033 0003 0039 -1
E: 338.606033 0003 002f 1
E: 338.606033 0003 0039 -1
E: 338.606033 0003 002f 2
E: 338.606033 0003 0039 -1
E: 338.606033 0003 002f 3
E: 338.606033 0003 0039 -1
E: 338.606033 0003 002f 4
E: 338.606033 0003 0039 -1
E: 338.606033 0003 002f 5
E: 338.606033 0003 0039 -1
E: 338.606033 0003 002f 6
E: 338.606033 0003 0039 -1
E: 338.606033 0003 002f 7
E: 338.606033 0003 0039 -1
E: 338.606033 0003 002f 8
E: 338.606033 0003 0039 -1
E: 338.606033 0003 002f 9
E: 338.606033 0003 0039 -1
E: 338.606033 0003 002f 10
E: 338.606033 0003 0039 -1
E: 338.606033 0003 002f 11
E: 338.606033 0003 0039 -1
E: 338.606033 0003 002f 12
E: 338.606033 0003 0039 -1
E: 338.606033 0003 002f 13
E: 338.606033 0003 0039 -1
E: 338.606033 0003 002f 14
E: 338.606033 0003 0039 -1
