{
  "tast_crowd-1920x1080_h264.cpu_usage": {
    "summary": {
      "units": "percent",
      "improvement_direction": "down",
      "type": "scalar",
      "value": 1.259446
    }
  },
  "tast_crowd-1920x1080_h264.encode_latency.50_percentile": {
    "summary": {
      "units": "us",
      "improvement_direction": "down",
      "type": "scalar",
      "value": 7638
    }
  },
  "tast_crowd-1920x1080_h264.encode_latency.75_percentile": {
    "summary": {
      "units": "us",
      "improvement_direction": "down",
      "type": "scalar",
      "value": 8242
    }
  },
  "tast_crowd-1920x1080_h264.encode_latency.95_percentile": {
    "summary": {
      "units": "us",
      "improvement_direction": "down",
      "type": "scalar",
      "value": 8588
    }
  },
  "tast_crowd-1920x1080_h264.fps": {
    "summary": {
      "units": "fps",
      "improvement_direction": "up",
      "type": "scalar",
      "value": 197.975
    }
  },
  "tast_crowd-1920x1080_h264.quality.psnr.avg": {
    "summary": {
      "units": "psnr",
      "improvement_direction": "up",
      "type": "scalar",
      "value": 32.00766259613769
    }
  },
  "tast_crowd-1920x1080_h264.quality.psnr.max": {
    "summary": {
      "units": "psnr",
      "improvement_direction": "up",
      "type": "scalar",
      "value": 37.92489953914719
    }
  },
  "tast_crowd-1920x1080_h264.quality.psnr.min": {
    "summary": {
      "units": "psnr",
      "improvement_direction": "up",
      "type": "scalar",
      "value": 19.78280488234524
    }
  },
  "tast_crowd-1920x1080_h264.quality.psnr.u.avg": {
    "summary": {
      "units": "psnr",
      "improvement_direction": "up",
      "type": "scalar",
      "value": 45.54484814009402
    }
  },
  "tast_crowd-1920x1080_h264.quality.psnr.u.max": {
    "summary": {
      "units": "psnr",
      "improvement_direction": "up",
      "type": "scalar",
      "value": 49.902788726501356
    }
  },
  "tast_crowd-1920x1080_h264.quality.psnr.u.min": {
    "summary": {
      "units": "psnr",
      "improvement_direction": "up",
      "type": "scalar",
      "value": 37.73153044410681
    }
  },
  "tast_crowd-1920x1080_h264.quality.psnr.v.avg": {
    "summary": {
      "units": "psnr",
      "improvement_direction": "up",
      "type": "scalar",
      "value": 45.71199256421689
    }
  },
  "tast_crowd-1920x1080_h264.quality.psnr.v.max": {
    "summary": {
      "units": "psnr",
      "improvement_direction": "up",
      "type": "scalar",
      "value": 50.444120042863844
    }
  },
  "tast_crowd-1920x1080_h264.quality.psnr.v.min": {
    "summary": {
      "units": "psnr",
      "improvement_direction": "up",
      "type": "scalar",
      "value": 35.76379198675398
    }
  },
  "tast_crowd-1920x1080_h264.quality.psnr.y.avg": {
    "summary": {
      "units": "psnr",
      "improvement_direction": "up",
      "type": "scalar",
      "value": 30.508946710441204
    }
  },
  "tast_crowd-1920x1080_h264.quality.psnr.y.max": {
    "summary": {
      "units": "psnr",
      "improvement_direction": "up",
      "type": "scalar",
      "value": 36.524232156286665
    }
  },
  "tast_crowd-1920x1080_h264.quality.psnr.y.min": {
    "summary": {
      "units": "psnr",
      "improvement_direction": "up",
      "type": "scalar",
      "value": 18.143044517786908
    }
  },
  "tast_crowd-1920x1080_h264.quality.ssim.avg": {
    "summary": {
      "units": "ssim",
      "improvement_direction": "up",
      "type": "scalar",
      "value": 0.8930758185000002
    }
  },
  "tast_crowd-1920x1080_h264.quality.ssim.max": {
    "summary": {
      "units": "ssim",
      "improvement_direction": "up",
      "type": "scalar",
      "value": 0.9604118
    }
  },
  "tast_crowd-1920x1080_h264.quality.ssim.min": {
    "summary": {
      "units": "ssim",
      "improvement_direction": "up",
      "type": "scalar",
      "value": 0.6101873
    }
  },
  "tast_crowd-1920x1080_h264.quality.ssim.u.avg": {
    "summary": {
      "units": "ssim",
      "improvement_direction": "up",
      "type": "scalar",
      "value": 0.9492596299999999
    }
  },
  "tast_crowd-1920x1080_h264.quality.ssim.u.max": {
    "summary": {
      "units": "ssim",
      "improvement_direction": "up",
      "type": "scalar",
      "value": 0.980796
    }
  },
  "tast_crowd-1920x1080_h264.quality.ssim.u.min": {
    "summary": {
      "units": "ssim",
      "improvement_direction": "up",
      "type": "scalar",
      "value": 0.85818
    }
  },
  "tast_crowd-1920x1080_h264.quality.ssim.v.avg": {
    "summary": {
      "units": "ssim",
      "improvement_direction": "up",
      "type": "scalar",
      "value": 0.9536995150000006
    }
  },
  "tast_crowd-1920x1080_h264.quality.ssim.v.max": {
    "summary": {
      "units": "ssim",
      "improvement_direction": "up",
      "type": "scalar",
      "value": 0.983962
    }
  },
  "tast_crowd-1920x1080_h264.quality.ssim.v.min": {
    "summary": {
      "units": "ssim",
      "improvement_direction": "up",
      "type": "scalar",
      "value": 0.853852
    }
  },
  "tast_crowd-1920x1080_h264.quality.ssim.y.avg": {
    "summary": {
      "units": "ssim",
      "improvement_direction": "up",
      "type": "scalar",
      "value": 0.8784748799999998
    }
  },
  "tast_crowd-1920x1080_h264.quality.ssim.y.max": {
    "summary": {
      "units": "ssim",
      "improvement_direction": "up",
      "type": "scalar",
      "value": 0.95492
    }
  },
  "tast_crowd-1920x1080_h264.quality.ssim.y.min": {
    "summary": {
      "units": "ssim",
      "improvement_direction": "up",
      "type": "scalar",
      "value": 0.547635
    }
  }
}