E: 166441.052501 0001 014a 1
E: 166441.052501 0001 014d 1
E: 166441.052501 0000 0000 0
E: 166441.052501 0003 0039 1096
E: 166441.052501 0003 0035 3865
E: 166441.052501 0003 0036 2687
E: 166441.052501 0003 003a 40
E: 166441.052501 0003 002f 1
E: 166441.052501 0003 0039 1097
E: 166441.052501 0003 0035 2824
E: 166441.052501 0003 0036 3028
E: 166441.052501 0003 003a 36
E: 166441.052501 0000 0000 0
E: 166441.077885 0003 002f 0
E: 166441.077885 0003 0035 3873
E: 166441.077885 0003 0036 2223
E: 166441.077885 0003 003a 38
E: 166441.077885 0003 002f 1
E: 166441.077885 0003 0035 2812
E: 166441.077885 0003 0036 2780
E: 166441.077885 0003 003a 40
E: 166441.077885 0000 0000 0
E: 166441.100687 0003 002f 1
E: 166441.100687 0003 0039 -1
E: 166441.100687 0000 0000 0
E: 166441.100687 0001 014d 0
E: 166441.100687 0001 0145 1
E: 166441.100687 0000 0000 0
E: 166441.100687 0003 0035 2858
E: 166441.100687 0003 0036 2482
E: 166441.100687 0003 003a 37
E: 166441.100687 0000 0000 0
E: 166441.111881 0003 0039 -1
E: 166441.111881 0000 0000 0
E: 166441.111881 0001 014a 0
E: 166441.111881 0001 0145 0
E: 166441.111881 0000 0000 0
